{
  "_id": "tI3rWx4bxefNCexS",
  "name": "Spell Scroll 6th Level",
  "type": "consumable",
  "img": "icons/sundries/scrolls/scroll-bound-sealed-red-green.webp",
  "data": {
    "description": {
      "value": "<p>A spell scroll bears the words of a single spell, written in a mystical cipher. If the spell is on your class's spell list, you can use an action to read the scroll and cast its spell without having to provide any of the spell's components. Otherwise, the scroll is unintelligible.</p>\n<p>If the spell is on your class's spell list but of a higher level than you can normally cast, you must make an ability check using your spellcasting ability to determine whether you cast it successfully. The DC is 16. On a failed check, the spell disappears from the scroll with no other effect.</p>\n<p>Once the spell is cast, the words on the scroll fade, and the scroll itself crumbles to dust.</p>\n<p>The level of the spell on the scroll determines the spell's saving throw DC and attack bonus, as well as the scroll's rarity.</p>\n<p><strong>Save DC</strong>: 17<br /><strong>Attack bonus</strong>: +9.</p>\n<p>A wizard spell on a spell scroll can be copied just as spells in spellbooks can be copied. When a spell is copied from a spell scroll, the copier must succeed on an Intelligence (Arcana) check with a DC equal to 10. If the check succeeds, the spell is successfully copied. Whether the check succeeds or fails, the spell scroll is destroyed.</p>",
      "chat": "",
      "unidentified": ""
    },
    "source": "DMG pg. 200",
    "quantity": 1,
    "weight": 0,
    "price": 1280,
    "attunement": 0,
    "equipped": false,
    "rarity": "veryRare",
    "identified": true,
    "activation": {
      "type": "action",
      "cost": 1,
      "condition": "Spell must be on the caster's spell list."
    },
    "duration": {
      "value": null,
      "units": ""
    },
    "target": {
      "value": null,
      "width": null,
      "units": "",
      "type": ""
    },
    "range": {
      "value": null,
      "long": null,
      "units": ""
    },
    "uses": {
      "value": 1,
      "max": 1,
      "per": "charges",
      "autoDestroy": true,
      "autoUse": true
    },
    "consume": {
      "type": "",
      "target": null,
      "amount": null
    },
    "ability": "",
    "actionType": "msak",
    "attackBonus": 9,
    "chatFlavor": "",
    "critical": {
      "threshold": null,
      "damage": ""
    },
    "damage": {
      "parts": [],
      "versatile": ""
    },
    "formula": "",
    "save": {
      "ability": "",
      "dc": null,
      "scaling": "flat"
    },
    "consumableType": "scroll",
    "attributes": {
      "spelldc": 10
    }
  },
  "effects": [],
  "folder": null,
  "sort": 600000,
  "permission": {
    "default": 0
  },
  "flags": {}
}
